{
    "in_reply_to_status_id_str": null,
    "in_reply_to_status_id": null,
    "possibly_sensitive": false,
    "coordinates": null,
    "created_at": "Wed Dec 19 14:18:59 +0000 2018",
    "truncated": true,
    "in_reply_to_user_id_str": null,
    "source": "<a href=\"http://twitter.com\" rel=\"nofollow\">Twitter Web Client<\/a>",
    "retweet_count": 59,
    "retweeted": false,
    "geo": null,
    "in_reply_to_screen_name": null,
    "is_quote_status": false,
    "entities": {
        "urls": [{
            "display_url": "twitter.com/i/web/status/1\u2026",
            "indices": [117, 140],
            "expanded_url": "https://twitter.com/i/web/status/1075395070394884096",
            "url": "https://t.co/gTbGnmZjLt"
        }],
        "hashtags": [],
        "user_mentions": [],
        "symbols": []
    },
    "id_str": "1075395070394884096",
    "in_reply_to_user_id": null,
    "favorite_count": 137,
    "id": 1075395070394884096,
    "text": "J'ai cité Etienne Chouard dans mon discours sur le RIC hier. Parce que, objectivement, quel nom revient sur les ronds-point\u2026 https://t.co/gTbGnmZjLt",
    "place": null,
    "contributors": null,
    "lang": "fr",
    "user": {
        "utc_offset": null,
        "friends_count": 1251,
        "profile_image_url_https": "https://pbs.twimg.com/profile_images/1042009919275393024/McAjscG0_normal.jpg",
        "listed_count": 626,
        "profile_background_image_url": "http://abs.twimg.com/images/themes/theme1/bg.png",
        "default_profile_image": false,
        "favourites_count": 1246,
        "description": "Député @PicardieDebout de la Somme. Rédac'chef de @Fakir_. Réalisateur de #MerciPatron.",
        "created_at": "Thu Nov 24 16:18:33 +0000 2016",
        "is_translator": false,
        "profile_background_image_url_https": "https://abs.twimg.com/images/themes/theme1/bg.png",
        "protected": false,
        "screen_name": "Francois_Ruffin",
        "id_str": "801822323825410049",
        "profile_link_color": "E81C4F",
        "is_translation_enabled": false,
        "translator_type": "none",
        "id": 801822323825410049,
        "geo_enabled": true,
        "profile_background_color": "000000",
        "lang": "fr",
        "has_extended_profile": true,
        "profile_sidebar_border_color": "000000",
        "profile_text_color": "000000",
        "verified": true,
        "profile_image_url": "http://pbs.twimg.com/profile_images/1042009919275393024/McAjscG0_normal.jpg",
        "time_zone": null,
        "url": "https://t.co/u5noinNN9q",
        "contributors_enabled": false,
        "profile_background_tile": false,
        "profile_banner_url": "https://pbs.twimg.com/profile_banners/801822323825410049/1542184139",
        "entities": {
            "description": {
                "urls": []
            },
            "url": {
                "urls": [{
                    "display_url": "francoisruffin.fr",
                    "indices": [0, 23],
                    "expanded_url": "http://www.francoisruffin.fr",
                    "url": "https://t.co/u5noinNN9q"
                }]
            }
        },
        "statuses_count": 4374,
        "follow_request_sent": false,
        "followers_count": 105820,
        "profile_use_background_image": false,
        "default_profile": false,
        "following": false,
        "location": "Amiens, France",
        "profile_sidebar_fill_color": "000000",
        "notifications": false
    },
    "favorited": false
}